<svg width="20" height="20" viewBox="0 0 20 20" fill="none" xmlns="http://www.w3.org/2000/svg">
<g id="basic / refresh">
<path id="coolicon" d="M9.99593 3.3335C6.53029 3.32876 3.63899 5.98016 3.34428 9.43325C3.04957 12.8863 5.44974 15.9894 8.86607 16.572C12.2824 17.1546 15.5754 15.0224 16.4418 11.6668H14.7076C13.8599 14.0644 11.3476 15.4438 8.86966 14.8722C6.39169 14.3006 4.73752 11.9601 5.02578 9.43342C5.31404 6.90676 7.45289 4.99897 9.99593 5.00017C11.3206 5.00211 12.5888 5.53666 13.5151 6.48351L10.8334 9.16684H16.6668V3.3335L14.7076 5.29184C13.4607 4.03736 11.7647 3.33243 9.99593 3.3335Z" fill="#FC455B"/>
</g>
</svg>
