<?xml version="1.0" encoding="UTF-8"?>
<svg xmlns="http://www.w3.org/2000/svg" xmlns:xlink="http://www.w3.org/1999/xlink" width="30px" height="30px" viewBox="0 0 30 30" version="1.1">
<g id="surface1">
<path style=" stroke:none;fill-rule:nonzero;fill:rgb(31.764706%,50.588235%,72.156863%);fill-opacity:1;" d="M 10.4375 0.164062 C 18.738281 0.164062 11.230469 0.164062 19.527344 0.164062 C 27.824219 0.164062 29.800781 2.140625 29.800781 10.4375 C 29.800781 18.738281 29.800781 11.230469 29.800781 19.527344 C 29.800781 27.824219 27.824219 29.800781 19.527344 29.800781 C 11.230469 29.800781 18.738281 29.800781 10.4375 29.800781 C 2.140625 29.800781 0.164062 27.824219 0.164062 19.527344 C 0.164062 11.230469 0.164062 15.074219 0.164062 10.4375 C 0.164062 2.140625 2.140625 0.164062 10.4375 0.164062 Z M 10.4375 0.164062 "/>
<path style=" stroke:none;fill-rule:nonzero;fill:rgb(100%,100%,100%);fill-opacity:1;" d="M 24.433594 10.375 C 24.574219 9.917969 24.433594 9.582031 23.78125 9.582031 L 21.621094 9.582031 C 21.070312 9.582031 20.816406 9.871094 20.679688 10.191406 C 20.679688 10.191406 19.582031 12.871094 18.023438 14.609375 C 17.519531 15.113281 17.292969 15.273438 17.015625 15.273438 C 16.878906 15.273438 16.679688 15.113281 16.679688 14.65625 L 16.679688 10.375 C 16.679688 9.824219 16.519531 9.582031 16.0625 9.582031 L 12.667969 9.582031 C 12.324219 9.582031 12.117188 9.835938 12.117188 10.078125 C 12.117188 10.597656 12.894531 10.71875 12.976562 12.183594 L 12.976562 15.367188 C 12.976562 16.0625 12.851562 16.191406 12.574219 16.191406 C 11.84375 16.191406 10.0625 13.5 9.003906 10.421875 C 8.796875 9.824219 8.589844 9.582031 8.035156 9.582031 L 5.875 9.582031 C 5.257812 9.582031 5.136719 9.871094 5.136719 10.191406 C 5.136719 10.765625 5.867188 13.601562 8.546875 17.359375 C 10.332031 19.921875 12.847656 21.3125 15.136719 21.3125 C 16.511719 21.3125 16.679688 21.003906 16.679688 20.472656 L 16.679688 18.535156 C 16.679688 17.917969 16.8125 17.792969 17.246094 17.792969 C 17.566406 17.792969 18.117188 17.953125 19.398438 19.191406 C 20.863281 20.65625 21.105469 21.3125 21.929688 21.3125 L 24.089844 21.3125 C 24.707031 21.3125 25.015625 21.003906 24.839844 20.394531 C 24.644531 19.785156 23.945312 18.90625 23.015625 17.863281 C 22.511719 17.265625 21.757812 16.625 21.527344 16.304688 C 21.207031 15.894531 21.296875 15.710938 21.527344 15.34375 C 21.527344 15.34375 24.160156 11.632812 24.433594 10.375 Z M 24.433594 10.375 "/>
</g>
</svg>
