<?xml version="1.0" encoding="UTF-8"?>
<svg xmlns="http://www.w3.org/2000/svg" xmlns:xlink="http://www.w3.org/1999/xlink" width="30px" height="30px" viewBox="0 0 30 30" version="1.1">
<g id="surface1">
<path style=" stroke:none;fill-rule:nonzero;fill:rgb(0%,0%,0%);fill-opacity:1;" d="M 8.359375 7.742188 L 19.195312 22.222656 L 21.648438 22.222656 L 10.8125 7.742188 Z M 8.359375 7.742188 "/>
<path style=" stroke:none;fill-rule:nonzero;fill:rgb(0%,0%,0%);fill-opacity:1;" d="M 23.988281 0.164062 L 5.976562 0.164062 C 2.765625 0.164062 0.164062 2.765625 0.164062 5.976562 L 0.164062 23.988281 C 0.164062 27.199219 2.765625 29.800781 5.976562 29.800781 L 23.988281 29.800781 C 27.199219 29.800781 29.800781 27.199219 29.800781 23.988281 L 29.800781 5.976562 C 29.800781 2.765625 27.199219 0.164062 23.988281 0.164062 Z M 18.617188 23.382812 L 13.683594 16.785156 L 7.578125 23.382812 L 6.011719 23.382812 L 12.984375 15.847656 L 6.054688 6.585938 L 11.394531 6.585938 L 15.9375 12.660156 L 21.558594 6.585938 L 23.128906 6.585938 L 16.636719 13.597656 L 23.957031 23.382812 Z M 18.617188 23.382812 "/>
</g>
</svg>
